{
	"info": {
		"_postman_id": "51b8b851-d251-4b8c-aebc-eae02b67e229",
		"name": "s33",
		"schema": "https://schema.getpostman.com/json/collection/v2.1.0/collection.json",
		"_exporter_id": "15277655"
	},
	"item": [
		{
			"name": "discussion",
			"item": [
				{
					"name": "create post",
					"request": {
						"method": "POST",
						"header": [],
						"body": {
							"mode": "raw",
							"raw": "{\r\n    \"userId\": 11,\r\n    \"title\": \"Create Post\",\r\n    \"body\": \"Create Post File\"\r\n}",
							"options": {
								"raw": {
									"language": "json"
								}
							}
						},
						"url": {
							"raw": "https://jsonplaceholder.typicode.com/posts/",
							"protocol": "https",
							"host": [
								"jsonplaceholder",
								"typicode",
								"com"
							],
							"path": [
								"posts",
								""
							]
						}
					},
					"response": []
				},
				{
					"name": "get all posts",
					"request": {
						"method": "GET",
						"header": [],
						"url": {
							"raw": "https://jsonplaceholder.typicode.com/posts/",
							"protocol": "https",
							"host": [
								"jsonplaceholder",
								"typicode",
								"com"
							],
							"path": [
								"posts",
								""
							]
						}
					},
					"response": []
				},
				{
					"name": "update post",
					"request": {
						"method": "PUT",
						"header": [],
						"body": {
							"mode": "raw",
							"raw": "{\r\n    \"userId\": 1,\r\n    \"id\": 1,\r\n    \"title\": \"Update Post\",\r\n    \"body\": \"Update Post Request\"\r\n}",
							"options": {
								"raw": {
									"language": "json"
								}
							}
						},
						"url": {
							"raw": "https://jsonplaceholder.typicode.com/posts/1",
							"protocol": "https",
							"host": [
								"jsonplaceholder",
								"typicode",
								"com"
							],
							"path": [
								"posts",
								"1"
							]
						}
					},
					"response": []
				},
				{
					"name": "delete post",
					"request": {
						"method": "DELETE",
						"header": [],
						"url": {
							"raw": "https://jsonplaceholder.typicode.com/posts/1",
							"protocol": "https",
							"host": [
								"jsonplaceholder",
								"typicode",
								"com"
							],
							"path": [
								"posts",
								"1"
							]
						}
					},
					"response": []
				}
			]
		},
		{
			"name": "activity",
			"item": [
				{
					"name": "get all todos",
					"request": {
						"method": "GET",
						"header": [],
						"url": {
							"raw": "https://jsonplaceholder.typicode.com/todos",
							"protocol": "https",
							"host": [
								"jsonplaceholder",
								"typicode",
								"com"
							],
							"path": [
								"todos"
							]
						}
					},
					"response": []
				},
				{
					"name": "get single todo",
					"request": {
						"method": "GET",
						"header": [],
						"url": {
							"raw": "https://jsonplaceholder.typicode.com/todos/1",
							"protocol": "https",
							"host": [
								"jsonplaceholder",
								"typicode",
								"com"
							],
							"path": [
								"todos",
								"1"
							]
						}
					},
					"response": []
				},
				{
					"name": "create todo",
					"request": {
						"method": "POST",
						"header": [],
						"body": {
							"mode": "raw",
							"raw": "{\r\n    \"completed\": false,\r\n    \"title\": \"Created To Do List Item\",\r\n    \"userId\": 1\r\n  }",
							"options": {
								"raw": {
									"language": "json"
								}
							}
						},
						"url": {
							"raw": "https://jsonplaceholder.typicode.com/todos",
							"protocol": "https",
							"host": [
								"jsonplaceholder",
								"typicode",
								"com"
							],
							"path": [
								"todos"
							]
						}
					},
					"response": []
				},
				{
					"name": "put todo",
					"request": {
						"method": "PUT",
						"header": [],
						"body": {
							"mode": "raw",
							"raw": "{\r\n    \"dateCompleted\": \"pending\",\r\n    \"description\":\"To update the my to do list with a different data structure\",\r\n    \"status\": \"Pending\",\r\n    \"title\": \"Updated To Do List Item\",\r\n    \"userId\": 1\r\n}",
							"options": {
								"raw": {
									"language": "json"
								}
							}
						},
						"url": {
							"raw": "https://jsonplaceholder.typicode.com/todos/1",
							"protocol": "https",
							"host": [
								"jsonplaceholder",
								"typicode",
								"com"
							],
							"path": [
								"todos",
								"1"
							]
						}
					},
					"response": []
				},
				{
					"name": "patch todo",
					"request": {
						"method": "PATCH",
						"header": [],
						"body": {
							"mode": "raw",
							"raw": "{\r\n    \"completed\": false,\r\n    \"dateCompleted\": \"07/09/21\",\r\n    \"status\": \"Complete\",\r\n    \"title\": \"delectus aut autem\",\r\n    \"userId\": 1\r\n}",
							"options": {
								"raw": {
									"language": "json"
								}
							}
						},
						"url": {
							"raw": "https://jsonplaceholder.typicode.com/todos/1",
							"protocol": "https",
							"host": [
								"jsonplaceholder",
								"typicode",
								"com"
							],
							"path": [
								"todos",
								"1"
							]
						}
					},
					"response": []
				},
				{
					"name": "delete todo",
					"request": {
						"method": "DELETE",
						"header": [],
						"url": {
							"raw": "https://jsonplaceholder.typicode.com/todos/1",
							"protocol": "https",
							"host": [
								"jsonplaceholder",
								"typicode",
								"com"
							],
							"path": [
								"todos",
								"1"
							]
						}
					},
					"response": []
				}
			]
		}
	]
}